echo "введите число A";
read A;
if (echo "$A" | grep -E -q "^?[0-9]+$"); then
echo "введите число B";
read B;
if (echo "$B" | grep -E -q "^?[0-9]+$"); then
echo "введите число C";
read C;
if (echo "$C" | grep -E -q "^?[0-9]+$"); then
D=$(( ($B)*($B)-4*($A)*($C) ));
echo $D;
else
echo "Not Number";
fi

else
echo "Not Number";
fi

else
echo "Not Number";
fi